{
    "baseUrl": "http://localhost:3000",
    "projectId": "m5qvjx",
    "testFiles": "**/*.cy.js",
    "experimentalInteractiveRunEvents": true,
    "env": {
        "dhis2DatatestPrefix": "dhis2-linelisting"
    }
}
